[
    {
        "pk": 1,
        "model": "sites.site",
        "fields": {
            "domain": "localhost:8000",
            "name": "LILY Games Platform"
        }
    },
    {
        "pk": 2,
        "model": "sites.site",
        "fields": {
            "domain": "example.com",
            "name": "LILY Games Platform"
        }
    }
]
